src/verilog/And16_test.vcd
$date
	Sun Dec  8 21:51:42 2019
$end
$version
	Icarus Verilog
$end
$timescale
	1s
$end
$scope module And16_test $end
$scope module and16 $end
$var wire 16 ! a [15:0] $end
$var wire 16 " b [15:0] $end
$var wire 16 # out [15:0] $end
$scope module and0 $end
$var wire 1 $ a $end
$var wire 1 % b $end
$var wire 1 & out $end
$var wire 1 ' w $end
$scope module not0 $end
$var wire 1 ' in $end
$var wire 1 & out $end
$upscope $end
$upscope $end
$scope module and1 $end
$var wire 1 ( a $end
$var wire 1 ) b $end
$var wire 1 * out $end
$var wire 1 + w $end
$scope module not0 $end
$var wire 1 + in $end
$var wire 1 * out $end
$upscope $end
$upscope $end
$scope module and2 $end
$var wire 1 , a $end
$var wire 1 - b $end
$var wire 1 . out $end
$var wire 1 / w $end
$scope module not0 $end
$var wire 1 / in $end
$var wire 1 . out $end
$upscope $end
$upscope $end
$scope module and3 $end
$var wire 1 0 a $end
$var wire 1 1 b $end
$var wire 1 2 out $end
$var wire 1 3 w $end
$scope module not0 $end
$var wire 1 3 in $end
$var wire 1 2 out $end
$upscope $end
$upscope $end
$scope module and4 $end
$var wire 1 4 a $end
$var wire 1 5 b $end
$var wire 1 6 out $end
$var wire 1 7 w $end
$scope module not0 $end
$var wire 1 7 in $end
$var wire 1 6 out $end
$upscope $end
$upscope $end
$scope module and5 $end
$var wire 1 8 a $end
$var wire 1 9 b $end
$var wire 1 : out $end
$var wire 1 ; w $end
$scope module not0 $end
$var wire 1 ; in $end
$var wire 1 : out $end
$upscope $end
$upscope $end
$scope module and6 $end
$var wire 1 < a $end
$var wire 1 = b $end
$var wire 1 > out $end
$var wire 1 ? w $end
$scope module not0 $end
$var wire 1 ? in $end
$var wire 1 > out $end
$upscope $end
$upscope $end
$scope module and7 $end
$var wire 1 @ a $end
$var wire 1 A b $end
$var wire 1 B out $end
$var wire 1 C w $end
$scope module not0 $end
$var wire 1 C in $end
$var wire 1 B out $end
$upscope $end
$upscope $end
$scope module and8 $end
$var wire 1 D a $end
$var wire 1 E b $end
$var wire 1 F out $end
$var wire 1 G w $end
$scope module not0 $end
$var wire 1 G in $end
$var wire 1 F out $end
$upscope $end
$upscope $end
$scope module and9 $end
$var wire 1 H a $end
$var wire 1 I b $end
$var wire 1 J out $end
$var wire 1 K w $end
$scope module not0 $end
$var wire 1 K in $end
$var wire 1 J out $end
$upscope $end
$upscope $end
$scope module and10 $end
$var wire 1 L a $end
$var wire 1 M b $end
$var wire 1 N out $end
$var wire 1 O w $end
$scope module not0 $end
$var wire 1 O in $end
$var wire 1 N out $end
$upscope $end
$upscope $end
$scope module and11 $end
$var wire 1 P a $end
$var wire 1 Q b $end
$var wire 1 R out $end
$var wire 1 S w $end
$scope module not0 $end
$var wire 1 S in $end
$var wire 1 R out $end
$upscope $end
$upscope $end
$scope module and12 $end
$var wire 1 T a $end
$var wire 1 U b $end
$var wire 1 V out $end
$var wire 1 W w $end
$scope module not0 $end
$var wire 1 W in $end
$var wire 1 V out $end
$upscope $end
$upscope $end
$scope module and13 $end
$var wire 1 X a $end
$var wire 1 Y b $end
$var wire 1 Z out $end
$var wire 1 [ w $end
$scope module not0 $end
$var wire 1 [ in $end
$var wire 1 Z out $end
$upscope $end
$upscope $end
$scope module and14 $end
$var wire 1 \ a $end
$var wire 1 ] b $end
$var wire 1 ^ out $end
$var wire 1 _ w $end
$scope module not0 $end
$var wire 1 _ in $end
$var wire 1 ^ out $end
$upscope $end
$upscope $end
$scope module and15 $end
$var wire 1 ` a $end
$var wire 1 a b $end
$var wire 1 b out $end
$var wire 1 c w $end
$scope module not0 $end
$var wire 1 c in $end
$var wire 1 b out $end
$upscope $end
$upscope $end
$upscope $end
$upscope $end
$enddefinitions $end
#0
$dumpvars
xc
xb
xa
x`
x_
x^
x]
x\
x[
xZ
xY
xX
xW
xV
xU
xT
xS
xR
xQ
xP
xO
xN
xM
xL
xK
xJ
xI
xH
xG
xF
xE
xD
xC
xB
xA
x@
x?
x>
x=
x<
x;
x:
x9
x8
x7
x6
x5
x4
x3
x2
x1
x0
x/
x.
x-
x,
x+
x*
x)
x(
x'
x&
x%
x$
bx #
bx "
bx !
$end
#1
0&
0*
0.
02
06
0:
0>
0B
0F
0J
0N
0R
0V
0Z
0^
0b
b0 #
1'
1+
1/
13
17
1;
1?
1C
1G
1K
1O
1S
1W
1[
1_
1c
0%
0)
0-
01
05
09
0=
0A
0E
0I
0M
0Q
0U
0Y
0]
0a
0$
0(
0,
00
04
08
0<
0@
0D
0H
0L
0P
0T
0X
0\
0`
b0 "
b0 !
#2
1&
1*
1.
12
16
1:
1>
1B
1F
1J
1N
1R
1V
1Z
1^
1b
b1111111111111111 #
0'
0+
0/
03
07
0;
0?
0C
0G
0K
0O
0S
0W
0[
0_
0c
1%
1)
1-
11
15
19
1=
1A
1E
1I
1M
1Q
1U
1Y
1]
1a
1$
1(
1,
10
14
18
1<
1@
1D
1H
1L
1P
1T
1X
1\
1`
b1111111111111111 "
b1111111111111111 !
#3
0&
0*
0.
02
06
0:
0>
0B
0F
0J
0N
0R
0V
0Z
0^
0b
b0 #
1'
1+
1/
13
17
1;
1?
1C
1G
1K
1O
1S
1W
1[
1_
1c
0%
0)
0-
01
05
09
0=
0A
0D
0H
0L
0P
0T
0X
0\
0`
b1111111100000000 "
b11111111 !
#4
1%
1)
1-
11
15
19
1=
1A
0E
0I
0M
0Q
0U
0Y
0]
0a
0$
0(
0,
00
04
08
0<
0@
1D
1H
1L
1P
1T
1X
1\
1`
b11111111 "
b1111111100000000 !
#5
0%
0-
05
0=
1I
1Q
1Y
1a
1$
1,
14
1<
0H
0P
0X
0`
b1010101010101010 "
b101010101010101 !
#6
1&
1.
16
1>
1*
12
1:
1B
b11111111 #
0'
0/
07
0?
0+
03
0;
0C
1%
1-
15
1=
0I
0Q
0Y
0a
1(
10
18
1@
0D
0L
0T
0\
b11111111 "
b11111111 !
#7
0&
0.
06
0>
1J
1R
1Z
1b
b1010101010101010 #
1'
1/
17
1?
0K
0S
0[
0c
0%
0-
05
0=
1I
1Q
1Y
1a
0$
0,
04
0<
1H
1P
1X
1`
b1010101010101010 "
b1010101010101010 !
#8
0:
0B
0*
02
0J
0R
1V
1^
b1111000000000000 #
1;
1C
1+
13
1K
1S
0W
0_
1%
1-
09
0A
0I
0Q
1U
1]
0(
00
14
1<
0H
0P
1T
1\
b1111000000001111 "
b1111000011110000 !
