src/verilog/dmux_test.vcd
$date
	Thu Feb 13 21:38:52 2020
$end
$version
	Icarus Verilog
$end
$timescale
	1s
$end
$scope module dmux_test $end
$scope module g0 $end
$var wire 1 ! a $end
$var wire 1 " b $end
$var wire 1 # in $end
$var wire 1 $ notsel $end
$var wire 1 % sel $end
$scope module g0 $end
$var wire 1 % in $end
$var wire 1 $ out $end
$upscope $end
$scope module g1 $end
$var wire 1 # a $end
$var wire 1 & aNandb $end
$var wire 1 $ b $end
$var wire 1 ! out $end
$scope module g1 $end
$var wire 1 & in $end
$var wire 1 ! out $end
$upscope $end
$upscope $end
$scope module g2 $end
$var wire 1 # a $end
$var wire 1 ' aNandb $end
$var wire 1 % b $end
$var wire 1 " out $end
$scope module g1 $end
$var wire 1 ' in $end
$var wire 1 " out $end
$upscope $end
$upscope $end
$upscope $end
$upscope $end
$scope module dmux_test $end
$scope module g1 $end
$var wire 1 ( a $end
$var wire 1 ) b $end
$var wire 1 * c $end
$var wire 1 + d $end
$var wire 1 # in $end
$var wire 2 , sel [1:0] $end
$var wire 1 - w0 $end
$var wire 1 . w1 $end
$scope module g0 $end
$var wire 1 - a $end
$var wire 1 . b $end
$var wire 1 # in $end
$var wire 1 / notsel $end
$var wire 1 0 sel $end
$scope module g0 $end
$var wire 1 0 in $end
$var wire 1 / out $end
$upscope $end
$scope module g1 $end
$var wire 1 # a $end
$var wire 1 1 aNandb $end
$var wire 1 / b $end
$var wire 1 - out $end
$scope module g1 $end
$var wire 1 1 in $end
$var wire 1 - out $end
$upscope $end
$upscope $end
$scope module g2 $end
$var wire 1 # a $end
$var wire 1 2 aNandb $end
$var wire 1 0 b $end
$var wire 1 . out $end
$scope module g1 $end
$var wire 1 2 in $end
$var wire 1 . out $end
$upscope $end
$upscope $end
$upscope $end
$scope module g1 $end
$var wire 1 ( a $end
$var wire 1 ) b $end
$var wire 1 - in $end
$var wire 1 3 notsel $end
$var wire 1 4 sel $end
$scope module g0 $end
$var wire 1 4 in $end
$var wire 1 3 out $end
$upscope $end
$scope module g1 $end
$var wire 1 - a $end
$var wire 1 5 aNandb $end
$var wire 1 3 b $end
$var wire 1 ( out $end
$scope module g1 $end
$var wire 1 5 in $end
$var wire 1 ( out $end
$upscope $end
$upscope $end
$scope module g2 $end
$var wire 1 - a $end
$var wire 1 6 aNandb $end
$var wire 1 4 b $end
$var wire 1 ) out $end
$scope module g1 $end
$var wire 1 6 in $end
$var wire 1 ) out $end
$upscope $end
$upscope $end
$upscope $end
$scope module g2 $end
$var wire 1 * a $end
$var wire 1 + b $end
$var wire 1 . in $end
$var wire 1 7 notsel $end
$var wire 1 8 sel $end
$scope module g0 $end
$var wire 1 8 in $end
$var wire 1 7 out $end
$upscope $end
$scope module g1 $end
$var wire 1 . a $end
$var wire 1 9 aNandb $end
$var wire 1 7 b $end
$var wire 1 * out $end
$scope module g1 $end
$var wire 1 9 in $end
$var wire 1 * out $end
$upscope $end
$upscope $end
$scope module g2 $end
$var wire 1 . a $end
$var wire 1 : aNandb $end
$var wire 1 8 b $end
$var wire 1 + out $end
$scope module g1 $end
$var wire 1 : in $end
$var wire 1 + out $end
$upscope $end
$upscope $end
$upscope $end
$upscope $end
$upscope $end
$scope module dmux_test $end
$scope module g2 $end
$var wire 1 ; a $end
$var wire 1 < b $end
$var wire 1 = c $end
$var wire 1 > d $end
$var wire 1 ? e $end
$var wire 1 @ f $end
$var wire 1 A g $end
$var wire 1 B g0_out0 $end
$var wire 1 C g0_out1 $end
$var wire 1 D h $end
$var wire 1 # in $end
$var wire 3 E sel [2:0] $end
$scope module g0 $end
$var wire 1 B a $end
$var wire 1 C b $end
$var wire 1 # in $end
$var wire 1 F notsel $end
$var wire 1 G sel $end
$scope module g0 $end
$var wire 1 G in $end
$var wire 1 F out $end
$upscope $end
$scope module g1 $end
$var wire 1 # a $end
$var wire 1 H aNandb $end
$var wire 1 F b $end
$var wire 1 B out $end
$scope module g1 $end
$var wire 1 H in $end
$var wire 1 B out $end
$upscope $end
$upscope $end
$scope module g2 $end
$var wire 1 # a $end
$var wire 1 I aNandb $end
$var wire 1 G b $end
$var wire 1 C out $end
$scope module g1 $end
$var wire 1 I in $end
$var wire 1 C out $end
$upscope $end
$upscope $end
$upscope $end
$scope module g1 $end
$var wire 1 ; a $end
$var wire 1 < b $end
$var wire 1 = c $end
$var wire 1 > d $end
$var wire 1 B in $end
$var wire 2 J sel [1:0] $end
$var wire 1 K w0 $end
$var wire 1 L w1 $end
$scope module g0 $end
$var wire 1 K a $end
$var wire 1 L b $end
$var wire 1 B in $end
$var wire 1 M notsel $end
$var wire 1 N sel $end
$scope module g0 $end
$var wire 1 N in $end
$var wire 1 M out $end
$upscope $end
$scope module g1 $end
$var wire 1 B a $end
$var wire 1 O aNandb $end
$var wire 1 M b $end
$var wire 1 K out $end
$scope module g1 $end
$var wire 1 O in $end
$var wire 1 K out $end
$upscope $end
$upscope $end
$scope module g2 $end
$var wire 1 B a $end
$var wire 1 P aNandb $end
$var wire 1 N b $end
$var wire 1 L out $end
$scope module g1 $end
$var wire 1 P in $end
$var wire 1 L out $end
$upscope $end
$upscope $end
$upscope $end
$scope module g1 $end
$var wire 1 ; a $end
$var wire 1 < b $end
$var wire 1 K in $end
$var wire 1 Q notsel $end
$var wire 1 R sel $end
$scope module g0 $end
$var wire 1 R in $end
$var wire 1 Q out $end
$upscope $end
$scope module g1 $end
$var wire 1 K a $end
$var wire 1 S aNandb $end
$var wire 1 Q b $end
$var wire 1 ; out $end
$scope module g1 $end
$var wire 1 S in $end
$var wire 1 ; out $end
$upscope $end
$upscope $end
$scope module g2 $end
$var wire 1 K a $end
$var wire 1 T aNandb $end
$var wire 1 R b $end
$var wire 1 < out $end
$scope module g1 $end
$var wire 1 T in $end
$var wire 1 < out $end
$upscope $end
$upscope $end
$upscope $end
$scope module g2 $end
$var wire 1 = a $end
$var wire 1 > b $end
$var wire 1 L in $end
$var wire 1 U notsel $end
$var wire 1 V sel $end
$scope module g0 $end
$var wire 1 V in $end
$var wire 1 U out $end
$upscope $end
$scope module g1 $end
$var wire 1 L a $end
$var wire 1 W aNandb $end
$var wire 1 U b $end
$var wire 1 = out $end
$scope module g1 $end
$var wire 1 W in $end
$var wire 1 = out $end
$upscope $end
$upscope $end
$scope module g2 $end
$var wire 1 L a $end
$var wire 1 X aNandb $end
$var wire 1 V b $end
$var wire 1 > out $end
$scope module g1 $end
$var wire 1 X in $end
$var wire 1 > out $end
$upscope $end
$upscope $end
$upscope $end
$upscope $end
$scope module g2 $end
$var wire 1 ? a $end
$var wire 1 @ b $end
$var wire 1 A c $end
$var wire 1 D d $end
$var wire 1 C in $end
$var wire 2 Y sel [1:0] $end
$var wire 1 Z w0 $end
$var wire 1 [ w1 $end
$scope module g0 $end
$var wire 1 Z a $end
$var wire 1 [ b $end
$var wire 1 C in $end
$var wire 1 \ notsel $end
$var wire 1 ] sel $end
$scope module g0 $end
$var wire 1 ] in $end
$var wire 1 \ out $end
$upscope $end
$scope module g1 $end
$var wire 1 C a $end
$var wire 1 ^ aNandb $end
$var wire 1 \ b $end
$var wire 1 Z out $end
$scope module g1 $end
$var wire 1 ^ in $end
$var wire 1 Z out $end
$upscope $end
$upscope $end
$scope module g2 $end
$var wire 1 C a $end
$var wire 1 _ aNandb $end
$var wire 1 ] b $end
$var wire 1 [ out $end
$scope module g1 $end
$var wire 1 _ in $end
$var wire 1 [ out $end
$upscope $end
$upscope $end
$upscope $end
$scope module g1 $end
$var wire 1 ? a $end
$var wire 1 @ b $end
$var wire 1 Z in $end
$var wire 1 ` notsel $end
$var wire 1 a sel $end
$scope module g0 $end
$var wire 1 a in $end
$var wire 1 ` out $end
$upscope $end
$scope module g1 $end
$var wire 1 Z a $end
$var wire 1 b aNandb $end
$var wire 1 ` b $end
$var wire 1 ? out $end
$scope module g1 $end
$var wire 1 b in $end
$var wire 1 ? out $end
$upscope $end
$upscope $end
$scope module g2 $end
$var wire 1 Z a $end
$var wire 1 c aNandb $end
$var wire 1 a b $end
$var wire 1 @ out $end
$scope module g1 $end
$var wire 1 c in $end
$var wire 1 @ out $end
$upscope $end
$upscope $end
$upscope $end
$scope module g2 $end
$var wire 1 A a $end
$var wire 1 D b $end
$var wire 1 [ in $end
$var wire 1 d notsel $end
$var wire 1 e sel $end
$scope module g0 $end
$var wire 1 e in $end
$var wire 1 d out $end
$upscope $end
$scope module g1 $end
$var wire 1 [ a $end
$var wire 1 f aNandb $end
$var wire 1 d b $end
$var wire 1 A out $end
$scope module g1 $end
$var wire 1 f in $end
$var wire 1 A out $end
$upscope $end
$upscope $end
$scope module g2 $end
$var wire 1 [ a $end
$var wire 1 g aNandb $end
$var wire 1 e b $end
$var wire 1 D out $end
$scope module g1 $end
$var wire 1 g in $end
$var wire 1 D out $end
$upscope $end
$upscope $end
$upscope $end
$upscope $end
$upscope $end
$upscope $end
$enddefinitions $end
#0
$dumpvars
1g
1f
0e
1d
1c
1b
0a
1`
1_
1^
0]
1\
0[
0Z
b0 Y
1X
1W
0V
1U
1T
1S
0R
1Q
1P
1O
0N
1M
0L
0K
b0 J
1I
1H
0G
1F
b0 E
0D
0C
0B
0A
0@
0?
0>
0=
0<
0;
1:
19
08
17
16
15
04
13
12
11
00
1/
0.
0-
b0 ,
0+
0*
0)
0(
1'
1&
0%
1$
0#
0"
0!
$end
#1
0Q
0U
0`
0d
1R
1V
1a
1e
b1 J
b1 Y
b1 E
#2
03
07
0M
1Q
1U
0\
1`
1d
14
18
1N
0R
0V
1]
0a
0e
b1 ,
b10 J
b10 Y
b10 E
#3
0Q
0U
0`
0d
1R
1V
1a
1e
b11 J
b11 Y
b11 E
#4
0/
13
17
1M
1Q
1U
1\
1`
1d
0$
10
04
08
0F
0N
0R
0V
0]
0a
0e
1%
b10 ,
1G
b0 J
b0 Y
b100 E
#5
0Q
0U
0`
0d
1R
1V
1a
1e
b1 J
b1 Y
b101 E
#6
03
07
0M
1Q
1U
0\
1`
1d
14
18
1N
0R
0V
1]
0a
0e
b11 ,
b10 J
b10 Y
b110 E
#7
0Q
0U
0`
0d
1R
1V
1a
1e
b11 J
b11 Y
b111 E
#8
1;
1(
0S
05
1K
1-
0*
0O
1!
01
19
1B
0&
1/
13
17
0H
1M
1Q
1U
1\
1`
1d
1$
00
04
08
1F
0N
0R
0V
0]
0a
0e
0"
0.
0C
0%
b0 ,
0G
b0 J
b0 Y
1'
12
1I
b0 E
1#
#9
0;
1S
1<
0Q
0T
0U
0`
0d
1R
1V
1a
1e
b1 J
b1 Y
b1 E
#10
1=
0(
0K
0W
0;
15
1)
1O
1L
1S
0<
03
06
07
0M
0P
1Q
1T
1U
0\
1`
1d
14
18
1N
0R
0V
1]
0a
0e
b1 ,
b10 J
b10 Y
b10 E
#11
0=
1W
1>
0Q
0U
0X
0`
0d
1R
1V
1a
1e
b11 J
b11 Y
b11 E
#12
0;
1?
1*
1S
0b
0-
09
0(
0K
0=
1Z
0!
11
1.
15
0)
0B
1O
0L
1W
0>
0^
1&
1"
0/
02
13
16
17
1H
1C
1M
1P
1Q
1U
1X
1\
1`
1d
0$
0'
10
04
08
0F
0I
0N
0R
0V
0]
0a
0e
1%
b10 ,
1G
b0 J
b0 Y
b100 E
#13
0?
1b
1@
0Q
0U
0`
0c
0d
1R
1V
1a
1e
b1 J
b1 Y
b101 E
#14
1A
0*
0Z
0f
0?
19
1+
1^
1[
1b
0@
03
07
0:
0M
1Q
1U
0\
0_
1`
1c
1d
14
18
1N
0R
0V
1]
0a
0e
b11 ,
b10 J
b10 Y
b110 E
#15
0A
1f
1D
0Q
0U
0`
0d
0g
1R
1V
1a
1e
b11 J
b11 Y
b111 E
#16
0D
0+
0[
1/
13
17
1M
1Q
1U
1\
1`
1d
1g
1:
1_
1$
00
04
08
1F
0N
0R
0V
0]
0a
0e
0"
0.
0C
0%
b0 ,
0G
b0 J
b0 Y
1'
12
1I
b0 E
0#
