src/verilog/dmux_test.vcd
$date
	Sun Jan  5 09:55:04 2020
$end
$version
	Icarus Verilog
$end
$timescale
	1s
$end
$scope module dmux_test $end
$scope module g0 $end
$var wire 1 ! a $end
$var wire 1 " b $end
$var wire 1 # in $end
$var wire 1 $ sel $end
$var wire 1 % w1 $end
$scope module not0 $end
$var wire 1 $ in $end
$var wire 1 % out $end
$upscope $end
$scope module and0 $end
$var wire 1 # a $end
$var wire 1 % b $end
$var wire 1 ! out $end
$var wire 1 & w $end
$scope module not0 $end
$var wire 1 & in $end
$var wire 1 ! out $end
$upscope $end
$upscope $end
$scope module and1 $end
$var wire 1 # a $end
$var wire 1 $ b $end
$var wire 1 " out $end
$var wire 1 ' w $end
$scope module not0 $end
$var wire 1 ' in $end
$var wire 1 " out $end
$upscope $end
$upscope $end
$upscope $end
$upscope $end
$scope module dmux_test $end
$scope module g1 $end
$var wire 1 ( a $end
$var wire 1 ) b $end
$var wire 1 * c $end
$var wire 1 + d $end
$var wire 1 # in $end
$var wire 2 , sel [1:0] $end
$var wire 1 - w0 $end
$var wire 1 . w1 $end
$scope module g0 $end
$var wire 1 - a $end
$var wire 1 . b $end
$var wire 1 # in $end
$var wire 1 / sel $end
$var wire 1 0 w1 $end
$scope module not0 $end
$var wire 1 / in $end
$var wire 1 0 out $end
$upscope $end
$scope module and0 $end
$var wire 1 # a $end
$var wire 1 0 b $end
$var wire 1 - out $end
$var wire 1 1 w $end
$scope module not0 $end
$var wire 1 1 in $end
$var wire 1 - out $end
$upscope $end
$upscope $end
$scope module and1 $end
$var wire 1 # a $end
$var wire 1 / b $end
$var wire 1 . out $end
$var wire 1 2 w $end
$scope module not0 $end
$var wire 1 2 in $end
$var wire 1 . out $end
$upscope $end
$upscope $end
$upscope $end
$scope module g1 $end
$var wire 1 ( a $end
$var wire 1 ) b $end
$var wire 1 - in $end
$var wire 1 3 sel $end
$var wire 1 4 w1 $end
$scope module not0 $end
$var wire 1 3 in $end
$var wire 1 4 out $end
$upscope $end
$scope module and0 $end
$var wire 1 - a $end
$var wire 1 4 b $end
$var wire 1 ( out $end
$var wire 1 5 w $end
$scope module not0 $end
$var wire 1 5 in $end
$var wire 1 ( out $end
$upscope $end
$upscope $end
$scope module and1 $end
$var wire 1 - a $end
$var wire 1 3 b $end
$var wire 1 ) out $end
$var wire 1 6 w $end
$scope module not0 $end
$var wire 1 6 in $end
$var wire 1 ) out $end
$upscope $end
$upscope $end
$upscope $end
$scope module g2 $end
$var wire 1 * a $end
$var wire 1 + b $end
$var wire 1 . in $end
$var wire 1 7 sel $end
$var wire 1 8 w1 $end
$scope module not0 $end
$var wire 1 7 in $end
$var wire 1 8 out $end
$upscope $end
$scope module and0 $end
$var wire 1 . a $end
$var wire 1 8 b $end
$var wire 1 * out $end
$var wire 1 9 w $end
$scope module not0 $end
$var wire 1 9 in $end
$var wire 1 * out $end
$upscope $end
$upscope $end
$scope module and1 $end
$var wire 1 . a $end
$var wire 1 7 b $end
$var wire 1 + out $end
$var wire 1 : w $end
$scope module not0 $end
$var wire 1 : in $end
$var wire 1 + out $end
$upscope $end
$upscope $end
$upscope $end
$upscope $end
$upscope $end
$scope module dmux_test $end
$scope module g2 $end
$var wire 1 ; a $end
$var wire 1 < b $end
$var wire 1 = c $end
$var wire 1 > d $end
$var wire 1 ? e $end
$var wire 1 @ f $end
$var wire 1 A g $end
$var wire 1 B g0_out0 $end
$var wire 1 C g0_out1 $end
$var wire 1 D h $end
$var wire 1 # in $end
$var wire 3 E sel [2:0] $end
$scope module g0 $end
$var wire 1 B a $end
$var wire 1 C b $end
$var wire 1 # in $end
$var wire 1 F sel $end
$var wire 1 G w1 $end
$scope module not0 $end
$var wire 1 F in $end
$var wire 1 G out $end
$upscope $end
$scope module and0 $end
$var wire 1 # a $end
$var wire 1 G b $end
$var wire 1 B out $end
$var wire 1 H w $end
$scope module not0 $end
$var wire 1 H in $end
$var wire 1 B out $end
$upscope $end
$upscope $end
$scope module and1 $end
$var wire 1 # a $end
$var wire 1 F b $end
$var wire 1 C out $end
$var wire 1 I w $end
$scope module not0 $end
$var wire 1 I in $end
$var wire 1 C out $end
$upscope $end
$upscope $end
$upscope $end
$scope module g1 $end
$var wire 1 ; a $end
$var wire 1 < b $end
$var wire 1 = c $end
$var wire 1 > d $end
$var wire 1 B in $end
$var wire 2 J sel [1:0] $end
$var wire 1 K w0 $end
$var wire 1 L w1 $end
$scope module g0 $end
$var wire 1 K a $end
$var wire 1 L b $end
$var wire 1 B in $end
$var wire 1 M sel $end
$var wire 1 N w1 $end
$scope module not0 $end
$var wire 1 M in $end
$var wire 1 N out $end
$upscope $end
$scope module and0 $end
$var wire 1 B a $end
$var wire 1 N b $end
$var wire 1 K out $end
$var wire 1 O w $end
$scope module not0 $end
$var wire 1 O in $end
$var wire 1 K out $end
$upscope $end
$upscope $end
$scope module and1 $end
$var wire 1 B a $end
$var wire 1 M b $end
$var wire 1 L out $end
$var wire 1 P w $end
$scope module not0 $end
$var wire 1 P in $end
$var wire 1 L out $end
$upscope $end
$upscope $end
$upscope $end
$scope module g1 $end
$var wire 1 ; a $end
$var wire 1 < b $end
$var wire 1 K in $end
$var wire 1 Q sel $end
$var wire 1 R w1 $end
$scope module not0 $end
$var wire 1 Q in $end
$var wire 1 R out $end
$upscope $end
$scope module and0 $end
$var wire 1 K a $end
$var wire 1 R b $end
$var wire 1 ; out $end
$var wire 1 S w $end
$scope module not0 $end
$var wire 1 S in $end
$var wire 1 ; out $end
$upscope $end
$upscope $end
$scope module and1 $end
$var wire 1 K a $end
$var wire 1 Q b $end
$var wire 1 < out $end
$var wire 1 T w $end
$scope module not0 $end
$var wire 1 T in $end
$var wire 1 < out $end
$upscope $end
$upscope $end
$upscope $end
$scope module g2 $end
$var wire 1 = a $end
$var wire 1 > b $end
$var wire 1 L in $end
$var wire 1 U sel $end
$var wire 1 V w1 $end
$scope module not0 $end
$var wire 1 U in $end
$var wire 1 V out $end
$upscope $end
$scope module and0 $end
$var wire 1 L a $end
$var wire 1 V b $end
$var wire 1 = out $end
$var wire 1 W w $end
$scope module not0 $end
$var wire 1 W in $end
$var wire 1 = out $end
$upscope $end
$upscope $end
$scope module and1 $end
$var wire 1 L a $end
$var wire 1 U b $end
$var wire 1 > out $end
$var wire 1 X w $end
$scope module not0 $end
$var wire 1 X in $end
$var wire 1 > out $end
$upscope $end
$upscope $end
$upscope $end
$upscope $end
$scope module g2 $end
$var wire 1 ? a $end
$var wire 1 @ b $end
$var wire 1 A c $end
$var wire 1 D d $end
$var wire 1 C in $end
$var wire 2 Y sel [1:0] $end
$var wire 1 Z w0 $end
$var wire 1 [ w1 $end
$scope module g0 $end
$var wire 1 Z a $end
$var wire 1 [ b $end
$var wire 1 C in $end
$var wire 1 \ sel $end
$var wire 1 ] w1 $end
$scope module not0 $end
$var wire 1 \ in $end
$var wire 1 ] out $end
$upscope $end
$scope module and0 $end
$var wire 1 C a $end
$var wire 1 ] b $end
$var wire 1 Z out $end
$var wire 1 ^ w $end
$scope module not0 $end
$var wire 1 ^ in $end
$var wire 1 Z out $end
$upscope $end
$upscope $end
$scope module and1 $end
$var wire 1 C a $end
$var wire 1 \ b $end
$var wire 1 [ out $end
$var wire 1 _ w $end
$scope module not0 $end
$var wire 1 _ in $end
$var wire 1 [ out $end
$upscope $end
$upscope $end
$upscope $end
$scope module g1 $end
$var wire 1 ? a $end
$var wire 1 @ b $end
$var wire 1 Z in $end
$var wire 1 ` sel $end
$var wire 1 a w1 $end
$scope module not0 $end
$var wire 1 ` in $end
$var wire 1 a out $end
$upscope $end
$scope module and0 $end
$var wire 1 Z a $end
$var wire 1 a b $end
$var wire 1 ? out $end
$var wire 1 b w $end
$scope module not0 $end
$var wire 1 b in $end
$var wire 1 ? out $end
$upscope $end
$upscope $end
$scope module and1 $end
$var wire 1 Z a $end
$var wire 1 ` b $end
$var wire 1 @ out $end
$var wire 1 c w $end
$scope module not0 $end
$var wire 1 c in $end
$var wire 1 @ out $end
$upscope $end
$upscope $end
$upscope $end
$scope module g2 $end
$var wire 1 A a $end
$var wire 1 D b $end
$var wire 1 [ in $end
$var wire 1 d sel $end
$var wire 1 e w1 $end
$scope module not0 $end
$var wire 1 d in $end
$var wire 1 e out $end
$upscope $end
$scope module and0 $end
$var wire 1 [ a $end
$var wire 1 e b $end
$var wire 1 A out $end
$var wire 1 f w $end
$scope module not0 $end
$var wire 1 f in $end
$var wire 1 A out $end
$upscope $end
$upscope $end
$scope module and1 $end
$var wire 1 [ a $end
$var wire 1 d b $end
$var wire 1 D out $end
$var wire 1 g w $end
$scope module not0 $end
$var wire 1 g in $end
$var wire 1 D out $end
$upscope $end
$upscope $end
$upscope $end
$upscope $end
$upscope $end
$upscope $end
$enddefinitions $end
#0
$dumpvars
1g
1f
1e
0d
1c
1b
1a
0`
1_
1^
1]
0\
0[
0Z
b0 Y
1X
1W
1V
0U
1T
1S
1R
0Q
1P
1O
1N
0M
0L
0K
b0 J
1I
1H
1G
0F
b0 E
0D
0C
0B
0A
0@
0?
0>
0=
0<
0;
1:
19
18
07
16
15
14
03
12
11
10
0/
0.
0-
b0 ,
0+
0*
0)
0(
1'
1&
1%
0$
0#
0"
0!
$end
#1
0R
0V
0a
0e
1Q
1U
1`
1d
b1 J
b1 Y
b1 E
#2
04
08
0N
1R
1V
0]
1a
1e
13
17
1M
0Q
0U
1\
0`
0d
b1 ,
b10 J
b10 Y
b10 E
#3
0R
0V
0a
0e
1Q
1U
1`
1d
b11 J
b11 Y
b11 E
#4
00
14
18
1N
1R
1V
1]
1a
1e
0%
1/
03
07
0G
0M
0Q
0U
0\
0`
0d
1$
b10 ,
1F
b0 J
b0 Y
b100 E
#5
0R
0V
0a
0e
1Q
1U
1`
1d
b1 J
b1 Y
b101 E
#6
04
08
0N
1R
1V
0]
1a
1e
13
17
1M
0Q
0U
1\
0`
0d
b11 ,
b10 J
b10 Y
b110 E
#7
0R
0V
0a
0e
1Q
1U
1`
1d
b11 J
b11 Y
b111 E
#8
1;
1(
0S
05
1K
1-
0*
0O
1!
01
19
1B
0&
10
14
18
0H
1N
1R
1V
1]
1a
1e
1%
0/
03
07
1G
0M
0Q
0U
0\
0`
0d
0"
0.
0C
0$
b0 ,
0F
b0 J
b0 Y
1'
12
1I
b0 E
1#
#9
0;
1S
1<
0R
0T
0V
0a
0e
1Q
1U
1`
1d
b1 J
b1 Y
b1 E
#10
1=
0(
0K
0W
0;
15
1)
1O
1L
1S
0<
04
06
08
0N
0P
1R
1T
1V
0]
1a
1e
13
17
1M
0Q
0U
1\
0`
0d
b1 ,
b10 J
b10 Y
b10 E
#11
0=
1W
1>
0R
0V
0X
0a
0e
1Q
1U
1`
1d
b11 J
b11 Y
b11 E
#12
0;
1?
1*
1S
0b
0-
09
0(
0K
0=
1Z
0!
11
1.
15
0)
0B
1O
0L
1W
0>
0^
1&
1"
00
02
14
16
18
1H
1C
1N
1P
1R
1V
1X
1]
1a
1e
0%
0'
1/
03
07
0G
0I
0M
0Q
0U
0\
0`
0d
1$
b10 ,
1F
b0 J
b0 Y
b100 E
#13
0?
1b
1@
0R
0V
0a
0c
0e
1Q
1U
1`
1d
b1 J
b1 Y
b101 E
#14
1A
0*
0Z
0f
0?
19
1+
1^
1[
1b
0@
04
08
0:
0N
1R
1V
0]
0_
1a
1c
1e
13
17
1M
0Q
0U
1\
0`
0d
b11 ,
b10 J
b10 Y
b110 E
#15
0A
1f
1D
0R
0V
0a
0e
0g
1Q
1U
1`
1d
b11 J
b11 Y
b111 E
#16
0D
0+
0[
10
14
18
1N
1R
1V
1]
1a
1e
1g
1:
1_
1%
0/
03
07
1G
0M
0Q
0U
0\
0`
0d
0"
0.
0C
0$
b0 ,
0F
b0 J
b0 Y
1'
12
1I
b0 E
0#
